…
We will get the predictions from the “preds” column created in the
original nested dataset using the map(function) and broom’s augment. I
will plot the data points with the original data and evaluate the slopes
from our predictions represented as trend lines.

``` r
unnested_preds <- 
  data_model %>% 
  unnest(preds)

unnested_preds 
```

    ## # A tibble: 350 × 12
    ## # Groups:   obs_period [8]
    ##    obs_period data     model  coeffs air_temp   LAI .fitted .resid   .hat .sigma
    ##    <chr>      <list>   <list> <list>    <dbl> <dbl>   <dbl>  <dbl>  <dbl>  <dbl>
    ##  1 1          <tibble> <lm>   <dbl>      22.7  4.3     22.8 -0.129 0.0298   2.24
    ##  2 1          <tibble> <lm>   <dbl>      20.7  7.25    20.6  0.118 0.134    2.24
    ##  3 1          <tibble> <lm>   <dbl>      22.0  6.6     21.1  0.940 0.100    2.24
    ##  4 1          <tibble> <lm>   <dbl>      20.5  6.55    21.1 -0.607 0.0981   2.24
    ##  5 1          <tibble> <lm>   <dbl>      21.8  6.45    21.2  0.590 0.0936   2.24
    ##  6 1          <tibble> <lm>   <dbl>      22.5  5.84    21.7  0.804 0.0690   2.24
    ##  7 1          <tibble> <lm>   <dbl>      21.0  5.41    22.0 -1.02  0.0548   2.24
    ##  8 1          <tibble> <lm>   <dbl>      22.3  5.31    22.1  0.244 0.0518   2.24
    ##  9 1          <tibble> <lm>   <dbl>      21.9  5.24    22.1 -0.199 0.0499   2.24
    ## 10 1          <tibble> <lm>   <dbl>      20.8  5.05    22.3 -1.44  0.0448   2.23
    ## # ℹ 340 more rows
    ## # ℹ 2 more variables: .cooksd <dbl>, .std.resid <dbl>
…
